{
  "total": 50,
  "per_page": 15,
  "current_page": 1,
  "last_page": 4,
  "data": [{"id":1,"task":"test name","status":"one","completed":0},{"id":2,"task":"sub task name","status":"two","completed":0},{"id":3,"task":"docket name","status":null,"completed":0},{"id":4,"task":"maintenance audit name","status":null,"completed":0}]
}